{
    "annotations": {
      "list": [
        {
          "builtIn": 1,
          "datasource": "-- Grafana --",
          "enable": true,
          "hide": true,
          "iconColor": "rgba(0, 211, 255, 1)",
          "name": "Annotations & Alerts",
          "type": "dashboard"
        }
      ]
    },
    "editable": true,
    "gnetId": null,
    "graphTooltip": 0,
    "id": 2,
    "links": [],
    "panels": [
      {
        "cacheTimeout": null,
        "datasource": "InfluxDB-telegraf",
        "gridPos": {
          "h": 8,
          "w": 12,
          "x": 6,
          "y": 0
        },
        "id": 5,
        "links": [],
        "options": {
          "fieldOptions": {
            "calcs": [
              "sum"
            ],
            "defaults": {
              "mappings": [
                {
                  "id": 0,
                  "op": "=",
                  "text": "N/A",
                  "type": 1,
                  "value": "null"
                }
              ],
              "nullValueMode": "connected",
              "thresholds": {
                "mode": "absolute",
                "steps": [
                  {
                    "color": "light-green",
                    "value": null
                  },
                  {
                    "color": "dark-green",
                    "value": 20
                  },
                  {
                    "color": "light-yellow",
                    "value": 40
                  },
                  {
                    "color": "dark-yellow",
                    "value": 60
                  },
                  {
                    "color": "dark-orange",
                    "value": 70
                  },
                  {
                    "color": "light-red",
                    "value": 80
                  },
                  {
                    "color": "dark-red",
                    "value": 90
                  }
                ]
              },
              "title": "",
              "unit": "percent"
            },
            "overrides": [],
            "values": false
          },
          "orientation": "horizontal",
          "showThresholdLabels": false,
          "showThresholdMarkers": true
        },
        "pluginVersion": "6.7.3",
        "targets": [
          {
            "alias": "Memory percentage usage",
            "groupBy": [
              {
                "params": [
                  "$__interval"
                ],
                "type": "time"
              },
              {
                "params": [
                  "null"
                ],
                "type": "fill"
              }
            ],
            "measurement": "docker_container_mem",
            "orderByTime": "ASC",
            "policy": "default",
            "refId": "A",
            "resultFormat": "time_series",
            "select": [
              [
                {
                  "params": [
                    "usage_percent"
                  ],
                  "type": "field"
                },
                {
                  "params": [],
                  "type": "mean"
                }
              ]
            ],
            "tags": [
              {
                "key": "io.kubernetes.container.name",
                "operator": "=",
                "value": "nginx"
              }
            ]
          }
        ],
        "timeFrom": null,
        "timeShift": null,
        "title": "Memory usage",
        "transparent": true,
        "type": "gauge"
      },
      {
        "aliasColors": {},
        "bars": false,
        "dashLength": 10,
        "dashes": false,
        "datasource": "InfluxDB-telegraf",
        "fill": 1,
        "fillGradient": 0,
        "gridPos": {
          "h": 8,
          "w": 12,
          "x": 0,
          "y": 8
        },
        "hiddenSeries": false,
        "id": 4,
        "legend": {
          "avg": true,
          "current": true,
          "max": true,
          "min": true,
          "show": true,
          "total": false,
          "values": true
        },
        "lines": true,
        "linewidth": 1,
        "nullPointMode": "null",
        "options": {
          "dataLinks": []
        },
        "percentage": false,
        "pointradius": 2,
        "points": false,
        "renderer": "flot",
        "seriesOverrides": [],
        "spaceLength": 10,
        "stack": false,
        "steppedLine": false,
        "targets": [
          {
            "alias": "Received packets",
            "groupBy": [
              {
                "params": [
                  "$__interval"
                ],
                "type": "time"
              },
              {
                "params": [
                  "null"
                ],
                "type": "fill"
              }
            ],
            "measurement": "docker_container_net",
            "orderByTime": "ASC",
            "policy": "default",
            "refId": "A",
            "resultFormat": "time_series",
            "select": [
              [
                {
                  "params": [
                    "rx_packets"
                  ],
                  "type": "field"
                },
                {
                  "params": [],
                  "type": "mean"
                }
              ]
            ],
            "tags": [
              {
                "key": "io.kubernetes.container.name",
                "operator": "=",
                "value": "nginx"
              }
            ]
          },
          {
            "alias": "Transmitted packets",
            "groupBy": [
              {
                "params": [
                  "$__interval"
                ],
                "type": "time"
              },
              {
                "params": [
                  "null"
                ],
                "type": "fill"
              }
            ],
            "measurement": "docker_container_net",
            "orderByTime": "ASC",
            "policy": "default",
            "refId": "B",
            "resultFormat": "time_series",
            "select": [
              [
                {
                  "params": [
                    "tx_packets"
                  ],
                  "type": "field"
                },
                {
                  "params": [],
                  "type": "mean"
                }
              ]
            ],
            "tags": [
              {
                "key": "io.kubernetes.container.name",
                "operator": "=",
                "value": "nginx"
              }
            ]
          }
        ],
        "thresholds": [],
        "timeFrom": null,
        "timeRegions": [],
        "timeShift": null,
        "title": "Network usage",
        "tooltip": {
          "shared": true,
          "sort": 0,
          "value_type": "individual"
        },
        "transparent": true,
        "type": "graph",
        "xaxis": {
          "buckets": null,
          "mode": "time",
          "name": null,
          "show": true,
          "values": []
        },
        "yaxes": [
          {
            "format": "short",
            "label": null,
            "logBase": 1,
            "max": null,
            "min": null,
            "show": true
          },
          {
            "format": "short",
            "label": null,
            "logBase": 1,
            "max": null,
            "min": null,
            "show": true
          }
        ],
        "yaxis": {
          "align": false,
          "alignLevel": null
        }
      },
      {
        "aliasColors": {},
        "bars": false,
        "dashLength": 10,
        "dashes": false,
        "datasource": "InfluxDB-telegraf",
        "fill": 1,
        "fillGradient": 0,
        "gridPos": {
          "h": 8,
          "w": 12,
          "x": 12,
          "y": 8
        },
        "hiddenSeries": false,
        "id": 2,
        "legend": {
          "avg": true,
          "current": true,
          "hideEmpty": false,
          "hideZero": false,
          "max": true,
          "min": true,
          "show": true,
          "total": false,
          "values": true
        },
        "lines": true,
        "linewidth": 1,
        "nullPointMode": "null",
        "options": {
          "dataLinks": []
        },
        "percentage": false,
        "pointradius": 2,
        "points": false,
        "renderer": "flot",
        "seriesOverrides": [],
        "spaceLength": 10,
        "stack": false,
        "steppedLine": false,
        "targets": [
          {
            "alias": "CPU mean usage",
            "groupBy": [
              {
                "params": [
                  "$__interval"
                ],
                "type": "time"
              },
              {
                "params": [
                  "null"
                ],
                "type": "fill"
              }
            ],
            "measurement": "docker_container_cpu",
            "orderByTime": "ASC",
            "policy": "default",
            "refId": "A",
            "resultFormat": "time_series",
            "select": [
              [
                {
                  "params": [
                    "usage_total"
                  ],
                  "type": "field"
                },
                {
                  "params": [],
                  "type": "mean"
                }
              ]
            ],
            "tags": [
              {
                "key": "io.kubernetes.container.name",
                "operator": "=",
                "value": "nginx"
              }
            ]
          }
        ],
        "thresholds": [],
        "timeFrom": null,
        "timeRegions": [],
        "timeShift": null,
        "title": "CPU usage",
        "tooltip": {
          "shared": true,
          "sort": 0,
          "value_type": "individual"
        },
        "transparent": true,
        "type": "graph",
        "xaxis": {
          "buckets": null,
          "mode": "time",
          "name": null,
          "show": true,
          "values": []
        },
        "yaxes": [
          {
            "format": "short",
            "label": null,
            "logBase": 1,
            "max": null,
            "min": null,
            "show": true
          },
          {
            "format": "short",
            "label": null,
            "logBase": 1,
            "max": null,
            "min": null,
            "show": true
          }
        ],
        "yaxis": {
          "align": false,
          "alignLevel": null
        }
      }
    ],
    "schemaVersion": 22,
    "style": "dark",
    "tags": [],
    "templating": {
      "list": []
    },
    "time": {
      "from": "now-6h",
      "to": "now"
    },
    "timepicker": {
      "refresh_intervals": [
        "5s",
        "10s",
        "30s",
        "1m",
        "5m",
        "15m",
        "30m",
        "1h",
        "2h",
        "1d"
      ]
    },
    "timezone": "",
    "title": "Nginx dashboard",
    "uid": "",
    "variables": {
      "list": []
    },
    "version": 9
  }
